%YAML 1.1
%TAG !u! tag:unity3d.com,2011:
--- !u!114 &11400000
MonoBehaviour:
  m_ObjectHideFlags: 0
  m_CorrespondingSourceObject: {fileID: 0}
  m_PrefabInstance: {fileID: 0}
  m_PrefabAsset: {fileID: 0}
  m_GameObject: {fileID: 0}
  m_Enabled: 1
  m_EditorHideFlags: 0
  m_Script: {fileID: 11500000, guid: adb63545ca14404899794bcd000d2c01, type: 3}
  m_Name: Grid Data
  m_EditorClassIdentifier: 
  serializationData:
    SerializedFormat: 2
    SerializedBytes: 
    ReferencedUnityObjects: []
    SerializedBytesString: 
    Prefab: {fileID: 0}
    PrefabModificationsReferencedUnityObjects: []
    PrefabModifications: []
    SerializationNodes: []
  GroundTileSpriteList:
  - {fileID: 21300000, guid: 5f90071c721c51544a47ea259e222f0e, type: 3}
  - {fileID: 21300000, guid: 6731830377f5ae843b8de1b2c990b9ab, type: 3}
  EnvironmentElements:
  - {fileID: 2233136457239056296, guid: 281108fafde2cd84999eb7dfced6afb9, type: 3}
  - {fileID: 319948004354880063, guid: a626e218f18381b4fba43a613f581221, type: 3}
  - {fileID: 3890311428280588168, guid: 450a9465e796e2f4a82b2450615c7199, type: 3}
  - {fileID: 573779850488419087, guid: 964c0ec282ca4f24da53d69e6711c783, type: 3}
  - {fileID: 6512332302062958940, guid: 91e8427287e755e499055e61264096f4, type: 3}
  - {fileID: 382503703269311456, guid: 796c03018f9f616469e0ef12fbe4b006, type: 3}
  CameraDistance: 10
  OrthographicSize: 10
  GridX: 3
  GridY: 3
  ElementsToSpawn: 20
